{
    "name": "Controls",
    "maps": [
        {
            "name": "UI",
            "id": "c3715aaf-fb86-477b-ab23-387c375c7b19",
            "actions": [
                {
                    "name": "Navigate",
                    "type": "Value",
                    "id": "86af312b-4ff3-42d7-8cf2-c468af265cd0",
                    "expectedControlType": "Vector2",
                    "processors": "",
                    "interactions": ""
                },
                {
                    "name": "Submit",
                    "type": "Button",
                    "id": "17fcc0fb-a4db-463f-9893-d215b23fbc34",
                    "expectedControlType": "Button",
                    "processors": "",
                    "interactions": ""
                },
                {
                    "name": "Cancel",
                    "type": "Button",
                    "id": "5aab51ee-709c-4fbe-b236-9e3377dd2af4",
                    "expectedControlType": "Button",
                    "processors": "",
                    "interactions": ""
                },
                {
                    "name": "Toggle",
                    "type": "Button",
                    "id": "66bf63e0-1a83-47d3-a11d-71d65da3a939",
                    "expectedControlType": "Button",
                    "processors": "",
                    "interactions": ""
                },
                {
                    "name": "Remove",
                    "type": "Button",
                    "id": "02acb480-d3d4-4aa4-b90c-e9547874491b",
                    "expectedControlType": "Button",
                    "processors": "",
                    "interactions": ""
                },
                {
                    "name": "Start",
                    "type": "Button",
                    "id": "879fb948-ade4-4938-b58c-730b71fabb39",
                    "expectedControlType": "Button",
                    "processors": "",
                    "interactions": ""
                },
                {
                    "name": "Point",
                    "type": "PassThrough",
                    "id": "c9dd8a19-838a-4a0a-8683-ddc072e3a3b5",
                    "expectedControlType": "Vector2",
                    "processors": "",
                    "interactions": ""
                },
                {
                    "name": "Click",
                    "type": "PassThrough",
                    "id": "10693e6e-d032-4dcb-b12b-6885d778be87",
                    "expectedControlType": "Button",
                    "processors": "",
                    "interactions": ""
                },
                {
                    "name": "ScrollWheel",
                    "type": "PassThrough",
                    "id": "19bb619b-5b3c-436c-985d-d1979031c15c",
                    "expectedControlType": "Vector2",
                    "processors": "",
                    "interactions": ""
                },
                {
                    "name": "MiddleClick",
                    "type": "PassThrough",
                    "id": "815f414d-8f56-4ab7-a2d4-058e8cad732d",
                    "expectedControlType": "",
                    "processors": "",
                    "interactions": ""
                },
                {
                    "name": "RightClick",
                    "type": "PassThrough",
                    "id": "5266b4bb-8d35-465d-86e8-ae9e635a05c4",
                    "expectedControlType": "",
                    "processors": "",
                    "interactions": ""
                },
                {
                    "name": "Shoulders",
                    "type": "Value",
                    "id": "3a6abf24-ebd5-42dc-b462-8103bcfdf042",
                    "expectedControlType": "Button",
                    "processors": "",
                    "interactions": ""
                },
                {
                    "name": "Triggers",
                    "type": "Value",
                    "id": "64719002-d1e6-4467-99a4-5b6575f9ed9e",
                    "expectedControlType": "Button",
                    "processors": "",
                    "interactions": ""
                },
                {
                    "name": "TrackedDevicePosition",
                    "type": "PassThrough",
                    "id": "28b6257b-e555-49b9-b340-56ac6d06482f",
                    "expectedControlType": "Vector3",
                    "processors": "",
                    "interactions": ""
                },
                {
                    "name": "TrackedDeviceOrientation",
                    "type": "PassThrough",
                    "id": "5ca36845-82cd-4fb2-af8c-e0359bcc496e",
                    "expectedControlType": "Quaternion",
                    "processors": "",
                    "interactions": ""
                }
            ],
            "bindings": [
                {
                    "name": "",
                    "id": "94da8644-10aa-4537-92bc-984c55097c9f",
                    "path": "<Gamepad>/dpad",
                    "interactions": "",
                    "processors": "",
                    "groups": "Gamepad",
                    "action": "Navigate",
                    "isComposite": false,
                    "isPartOfComposite": false
                },
                {
                    "name": "",
                    "id": "85de26a6-302b-4e92-b0d9-0ba9db050c2e",
                    "path": "<Gamepad>/leftStick",
                    "interactions": "",
                    "processors": "",
                    "groups": "Gamepad",
                    "action": "Navigate",
                    "isComposite": false,
                    "isPartOfComposite": false
                },
                {
                    "name": "Keyboard",
                    "id": "a3babb7f-57a8-4348-a58b-ae3d77a80341",
                    "path": "2DVector",
                    "interactions": "",
                    "processors": "",
                    "groups": "",
                    "action": "Navigate",
                    "isComposite": true,
                    "isPartOfComposite": false
                },
                {
                    "name": "up",
                    "id": "caf3ad98-2ffa-40d7-83ca-b99549e7ada3",
                    "path": "<Keyboard>/w",
                    "interactions": "",
                    "processors": "",
                    "groups": "Keyboard & Mouse",
                    "action": "Navigate",
                    "isComposite": false,
                    "isPartOfComposite": true
                },
                {
                    "name": "down",
                    "id": "efeb909a-f71a-4e28-8ea7-137047f51bc0",
                    "path": "<Keyboard>/s",
                    "interactions": "",
                    "processors": "",
                    "groups": "Keyboard & Mouse",
                    "action": "Navigate",
                    "isComposite": false,
                    "isPartOfComposite": true
                },
                {
                    "name": "left",
                    "id": "13fe6734-24ef-42b5-b9fe-e8ce78493804",
                    "path": "<Keyboard>/a",
                    "interactions": "",
                    "processors": "",
                    "groups": "Keyboard & Mouse",
                    "action": "Navigate",
                    "isComposite": false,
                    "isPartOfComposite": true
                },
                {
                    "name": "right",
                    "id": "6187ea6c-882a-475e-b6f4-8150f186d170",
                    "path": "<Keyboard>/d",
                    "interactions": "",
                    "processors": "",
                    "groups": "Keyboard & Mouse",
                    "action": "Navigate",
                    "isComposite": false,
                    "isPartOfComposite": true
                },
                {
                    "name": "right",
                    "id": "dd64e209-f237-44d2-a542-6af645aba564",
                    "path": "<Keyboard>/rightArrow",
                    "interactions": "",
                    "processors": "",
                    "groups": "Keyboard & Mouse",
                    "action": "Navigate",
                    "isComposite": false,
                    "isPartOfComposite": true
                },
                {
                    "name": "left",
                    "id": "26993575-fa85-4c1b-9387-cf24d03e25f6",
                    "path": "<Keyboard>/leftArrow",
                    "interactions": "",
                    "processors": "",
                    "groups": "Keyboard & Mouse",
                    "action": "Navigate",
                    "isComposite": false,
                    "isPartOfComposite": true
                },
                {
                    "name": "down",
                    "id": "fdba4e7f-8a0f-4297-905f-5c2c11b64cd7",
                    "path": "<Keyboard>/downArrow",
                    "interactions": "",
                    "processors": "",
                    "groups": "Keyboard & Mouse",
                    "action": "Navigate",
                    "isComposite": false,
                    "isPartOfComposite": true
                },
                {
                    "name": "up",
                    "id": "84dacef4-4eb1-4a27-8649-53e509373af3",
                    "path": "<Keyboard>/upArrow",
                    "interactions": "",
                    "processors": "",
                    "groups": "Keyboard & Mouse",
                    "action": "Navigate",
                    "isComposite": false,
                    "isPartOfComposite": true
                },
                {
                    "name": "",
                    "id": "6ca00922-1f34-4b27-8329-6cfdc0c89432",
                    "path": "<Keyboard>/backspace",
                    "interactions": "",
                    "processors": "",
                    "groups": "Keyboard & Mouse",
                    "action": "Cancel",
                    "isComposite": false,
                    "isPartOfComposite": false
                },
                {
                    "name": "",
                    "id": "1a11760d-c8d0-4f5b-a333-fca705bf6474",
                    "path": "<SwitchProControllerHID>/buttonSouth",
                    "interactions": "",
                    "processors": "",
                    "groups": "Gamepad",
                    "action": "Cancel",
                    "isComposite": false,
                    "isPartOfComposite": false
                },
                {
                    "name": "",
                    "id": "1db0fe06-6ba3-49eb-b97c-f2f14c62c7b2",
                    "path": "<XInputController>/buttonEast",
                    "interactions": "",
                    "processors": "",
                    "groups": "Gamepad",
                    "action": "Cancel",
                    "isComposite": false,
                    "isPartOfComposite": false
                },
                {
                    "name": "",
                    "id": "1e7be2f9-266a-4df6-af8e-21f0f37846d9",
                    "path": "<DualShockGamepad>/buttonSouth",
                    "interactions": "",
                    "processors": "",
                    "groups": "Gamepad",
                    "action": "Cancel",
                    "isComposite": false,
                    "isPartOfComposite": false
                },
                {
                    "name": "",
                    "id": "891d3058-d201-40a3-b7ad-2b3c9ea421c5",
                    "path": "<Mouse>/position",
                    "interactions": "",
                    "processors": "",
                    "groups": "Keyboard & Mouse",
                    "action": "Point",
                    "isComposite": false,
                    "isPartOfComposite": false
                },
                {
                    "name": "",
                    "id": "d227cbe5-861e-46fe-9a84-8b99f1d766a6",
                    "path": "<Pen>/position",
                    "interactions": "",
                    "processors": "",
                    "groups": "Keyboard & Mouse",
                    "action": "Point",
                    "isComposite": false,
                    "isPartOfComposite": false
                },
                {
                    "name": "",
                    "id": "02b5ea16-0dba-449c-bd48-2b6054ac0db0",
                    "path": "<Mouse>/leftButton",
                    "interactions": "",
                    "processors": "",
                    "groups": "Keyboard & Mouse",
                    "action": "Click",
                    "isComposite": false,
                    "isPartOfComposite": false
                },
                {
                    "name": "",
                    "id": "f6aec714-003a-4b26-88eb-74b0e8692a0f",
                    "path": "<Pen>/tip",
                    "interactions": "",
                    "processors": "",
                    "groups": "Keyboard & Mouse",
                    "action": "Click",
                    "isComposite": false,
                    "isPartOfComposite": false
                },
                {
                    "name": "",
                    "id": "276665d3-1073-4c2c-a2c7-b03aeea87259",
                    "path": "<Mouse>/scroll",
                    "interactions": "",
                    "processors": "",
                    "groups": "Keyboard & Mouse",
                    "action": "ScrollWheel",
                    "isComposite": false,
                    "isPartOfComposite": false
                },
                {
                    "name": "",
                    "id": "35041d74-625a-4c98-9fba-aa5b21715933",
                    "path": "<Mouse>/middleButton",
                    "interactions": "",
                    "processors": "",
                    "groups": "Keyboard & Mouse",
                    "action": "MiddleClick",
                    "isComposite": false,
                    "isPartOfComposite": false
                },
                {
                    "name": "",
                    "id": "44d9365b-086b-4cbe-a826-e8275f9db06e",
                    "path": "<Mouse>/rightButton",
                    "interactions": "",
                    "processors": "",
                    "groups": "Keyboard & Mouse",
                    "action": "RightClick",
                    "isComposite": false,
                    "isPartOfComposite": false
                },
                {
                    "name": "Keyboard",
                    "id": "9179ba2e-6ec9-4f84-8ddb-ddfc556dee8b",
                    "path": "1DAxis",
                    "interactions": "",
                    "processors": "",
                    "groups": "",
                    "action": "Shoulders",
                    "isComposite": true,
                    "isPartOfComposite": false
                },
                {
                    "name": "negative",
                    "id": "1d7ec945-9d97-4a19-92cf-9d8ff581c055",
                    "path": "<Keyboard>/q",
                    "interactions": "",
                    "processors": "",
                    "groups": "Keyboard & Mouse",
                    "action": "Shoulders",
                    "isComposite": false,
                    "isPartOfComposite": true
                },
                {
                    "name": "positive",
                    "id": "496a0507-f57c-4efb-97a0-5219c5f8fa59",
                    "path": "<Keyboard>/e",
                    "interactions": "",
                    "processors": "",
                    "groups": "",
                    "action": "Shoulders",
                    "isComposite": false,
                    "isPartOfComposite": true
                },
                {
                    "name": "Gamepad",
                    "id": "db48bad0-dc70-41e5-b3b4-3c7f2357eae6",
                    "path": "1DAxis",
                    "interactions": "",
                    "processors": "",
                    "groups": "",
                    "action": "Shoulders",
                    "isComposite": true,
                    "isPartOfComposite": false
                },
                {
                    "name": "negative",
                    "id": "54bfbe0d-f276-483f-addf-9aa6a8d3656c",
                    "path": "<Gamepad>/leftShoulder",
                    "interactions": "",
                    "processors": "",
                    "groups": "Gamepad",
                    "action": "Shoulders",
                    "isComposite": false,
                    "isPartOfComposite": true
                },
                {
                    "name": "positive",
                    "id": "86809f15-ad22-4574-b397-c011a42254ed",
                    "path": "<Gamepad>/rightShoulder",
                    "interactions": "",
                    "processors": "",
                    "groups": "Gamepad",
                    "action": "Shoulders",
                    "isComposite": false,
                    "isPartOfComposite": true
                },
                {
                    "name": "Keyboard",
                    "id": "e1ed9a35-601d-4dc8-a24d-cbe14b03ee68",
                    "path": "1DAxis",
                    "interactions": "",
                    "processors": "",
                    "groups": "",
                    "action": "Triggers",
                    "isComposite": true,
                    "isPartOfComposite": false
                },
                {
                    "name": "negative",
                    "id": "3a55db9a-8a7b-48c5-9a36-b02de6f16fec",
                    "path": "<Keyboard>/z",
                    "interactions": "",
                    "processors": "",
                    "groups": "Keyboard & Mouse",
                    "action": "Triggers",
                    "isComposite": false,
                    "isPartOfComposite": true
                },
                {
                    "name": "positive",
                    "id": "00f2b229-b4b1-4974-9083-57fbb8d14bda",
                    "path": "<Keyboard>/c",
                    "interactions": "",
                    "processors": "",
                    "groups": "Keyboard & Mouse",
                    "action": "Triggers",
                    "isComposite": false,
                    "isPartOfComposite": true
                },
                {
                    "name": "Gamepad",
                    "id": "e9374eaa-9934-4492-96fc-498608e50852",
                    "path": "1DAxis",
                    "interactions": "",
                    "processors": "",
                    "groups": "",
                    "action": "Triggers",
                    "isComposite": true,
                    "isPartOfComposite": false
                },
                {
                    "name": "negative",
                    "id": "33668246-1a05-4f6b-82fe-d9dd95301ad7",
                    "path": "<Gamepad>/leftTrigger",
                    "interactions": "",
                    "processors": "",
                    "groups": "Gamepad",
                    "action": "Triggers",
                    "isComposite": false,
                    "isPartOfComposite": true
                },
                {
                    "name": "positive",
                    "id": "92d632e0-bd32-4d36-8407-3b1b6c8f3368",
                    "path": "<Gamepad>/rightTrigger",
                    "interactions": "",
                    "processors": "",
                    "groups": "Gamepad",
                    "action": "Triggers",
                    "isComposite": false,
                    "isPartOfComposite": true
                },
                {
                    "name": "",
                    "id": "8befb83a-9a7e-46ea-ab72-7ec3ab21956d",
                    "path": "<Keyboard>/ctrl",
                    "interactions": "",
                    "processors": "",
                    "groups": "Keyboard & Mouse",
                    "action": "Toggle",
                    "isComposite": false,
                    "isPartOfComposite": false
                },
                {
                    "name": "",
                    "id": "0bc925ec-3cbe-4580-a5cc-6134066ce685",
                    "path": "<SwitchProControllerHID>/buttonWest",
                    "interactions": "",
                    "processors": "",
                    "groups": "Gamepad",
                    "action": "Toggle",
                    "isComposite": false,
                    "isPartOfComposite": false
                },
                {
                    "name": "",
                    "id": "15921e40-a198-4695-bf0f-4959f4285ae8",
                    "path": "<XInputController>/buttonNorth",
                    "interactions": "",
                    "processors": "",
                    "groups": "Gamepad",
                    "action": "Toggle",
                    "isComposite": false,
                    "isPartOfComposite": false
                },
                {
                    "name": "",
                    "id": "9112da05-2ae5-42c2-893c-b3a9c940d13d",
                    "path": "<DualShockGamepad>/buttonNorth",
                    "interactions": "",
                    "processors": "",
                    "groups": "Gamepad",
                    "action": "Toggle",
                    "isComposite": false,
                    "isPartOfComposite": false
                },
                {
                    "name": "",
                    "id": "08e20b14-3367-4178-8e20-f71d59642f5d",
                    "path": "<Keyboard>/escape",
                    "interactions": "",
                    "processors": "",
                    "groups": "Keyboard & Mouse",
                    "action": "Start",
                    "isComposite": false,
                    "isPartOfComposite": false
                },
                {
                    "name": "",
                    "id": "439d1bbd-e139-4da1-8680-5239ee53ed7f",
                    "path": "<SwitchProControllerHID>/start",
                    "interactions": "",
                    "processors": "",
                    "groups": "Gamepad",
                    "action": "Start",
                    "isComposite": false,
                    "isPartOfComposite": false
                },
                {
                    "name": "",
                    "id": "6e74db4b-a622-4242-b74b-03a44d6612d0",
                    "path": "<XInputController>/start",
                    "interactions": "",
                    "processors": "",
                    "groups": "Gamepad",
                    "action": "Start",
                    "isComposite": false,
                    "isPartOfComposite": false
                },
                {
                    "name": "",
                    "id": "33365b34-6c3f-4f4f-9563-25515f53fd56",
                    "path": "<DualShockGamepad>/start",
                    "interactions": "",
                    "processors": "",
                    "groups": "Gamepad",
                    "action": "Start",
                    "isComposite": false,
                    "isPartOfComposite": false
                },
                {
                    "name": "",
                    "id": "b7c20918-2e03-4490-99fc-be9f23cbef60",
                    "path": "<Keyboard>/enter",
                    "interactions": "",
                    "processors": "",
                    "groups": "Keyboard & Mouse",
                    "action": "Submit",
                    "isComposite": false,
                    "isPartOfComposite": false
                },
                {
                    "name": "",
                    "id": "0945be96-6364-4560-9d84-dfdf637a65a9",
                    "path": "<SwitchProControllerHID>/buttonEast",
                    "interactions": "",
                    "processors": "",
                    "groups": "Gamepad",
                    "action": "Submit",
                    "isComposite": false,
                    "isPartOfComposite": false
                },
                {
                    "name": "",
                    "id": "431a0906-a7c5-4936-95a4-295c59dc5b8a",
                    "path": "<XInputController>/buttonSouth",
                    "interactions": "",
                    "processors": "",
                    "groups": "Gamepad",
                    "action": "Submit",
                    "isComposite": false,
                    "isPartOfComposite": false
                },
                {
                    "name": "",
                    "id": "4d1f4ef1-6e36-479e-b4e7-0e02f36281c5",
                    "path": "<DualShockGamepad>/buttonEast",
                    "interactions": "",
                    "processors": "",
                    "groups": "Gamepad",
                    "action": "Submit",
                    "isComposite": false,
                    "isPartOfComposite": false
                },
                {
                    "name": "",
                    "id": "d6d96246-5074-4ced-ab9b-d5293ca231ce",
                    "path": "<Keyboard>/delete",
                    "interactions": "",
                    "processors": "",
                    "groups": "Keyboard & Mouse",
                    "action": "Remove",
                    "isComposite": false,
                    "isPartOfComposite": false
                },
                {
                    "name": "",
                    "id": "4e8c63d5-b09e-4c58-a341-5d37ff79ca38",
                    "path": "<SwitchProControllerHID>/buttonNorth",
                    "interactions": "",
                    "processors": "",
                    "groups": "Gamepad",
                    "action": "Remove",
                    "isComposite": false,
                    "isPartOfComposite": false
                },
                {
                    "name": "",
                    "id": "ea42e095-1cc9-4ebc-a92d-131992038c21",
                    "path": "<XInputController>/buttonWest",
                    "interactions": "",
                    "processors": "",
                    "groups": "Gamepad",
                    "action": "Remove",
                    "isComposite": false,
                    "isPartOfComposite": false
                },
                {
                    "name": "",
                    "id": "7a2adf88-e8c1-491c-9261-cec68abfc29f",
                    "path": "<DualShockGamepad>/buttonWest",
                    "interactions": "",
                    "processors": "",
                    "groups": "Gamepad",
                    "action": "Remove",
                    "isComposite": false,
                    "isPartOfComposite": false
                }
            ]
        }
    ],
    "controlSchemes": [
        {
            "name": "Keyboard & Mouse",
            "bindingGroup": "Keyboard & Mouse",
            "devices": []
        },
        {
            "name": "Gamepad",
            "bindingGroup": "Gamepad",
            "devices": []
        }
    ]
}