%YAML 1.1
%TAG !u! tag:unity3d.com,2011:
--- !u!114 &11400000
MonoBehaviour:
  m_ObjectHideFlags: 0
  m_CorrespondingSourceObject: {fileID: 0}
  m_PrefabInstance: {fileID: 0}
  m_PrefabAsset: {fileID: 0}
  m_GameObject: {fileID: 0}
  m_Enabled: 1
  m_EditorHideFlags: 0
  m_Script: {fileID: 11500000, guid: d2b96a900ced20843b2e7d98359ed3f7, type: 3}
  m_Name: 002 - Cabellet
  m_EditorClassIdentifier: 
  name: Cabellet
  id: 2
  category: Ballerina
  dexEntry: 
  genderRatio: 0
  catchRate: 1
  primaryType:
    value: 4
  secondaryType:
    value: 17
  measurements:
    height: 0
    weight: 0
  progression:
    group: 0
  stats:
    baseStats:
      keys: 000000000100000002000000030000000400000005000000
      values: 000000000000000000000000000000000000000000000000
    baseHappiness: 0
  yield:
    experience: 0
    ev:
      keys: 000000000100000002000000030000000400000005000000
      values: 000000000000000000000000000000000000000000000000
  sprites:
    menuSprite: {fileID: 0}
    frontSprite: {fileID: 0}
    backSprite: {fileID: 0}
