%YAML 1.1
%TAG !u! tag:unity3d.com,2011:
--- !u!114 &11400000
MonoBehaviour:
  m_ObjectHideFlags: 0
  m_CorrespondingSourceObject: {fileID: 0}
  m_PrefabInstance: {fileID: 0}
  m_PrefabAsset: {fileID: 0}
  m_GameObject: {fileID: 0}
  m_Enabled: 1
  m_EditorHideFlags: 0
  m_Script: {fileID: 11500000, guid: 08a2b7f188606fe49bbca31d6c8e8aec, type: 3}
  m_Name: Difficulty
  m_EditorClassIdentifier: 
  sortingCategory: 0
  type: 1
  values:
  - Easy
  - Normal
  - Hard
  value: Normal
  defaultValue: Normal
  description: Lorem ipsum dolor sit amet, consectetur adipiscing elit. Proin eu
    rutrum ligula, a laoreet libero.
