%YAML 1.1
%TAG !u! tag:unity3d.com,2011:
--- !u!78 &1
TagManager:
  serializedVersion: 2
  tags:
  - NPC
  - Canvas
  - Customizable
  - Collidable
  - Stairs
  - Opposite
  - Dialog Text
  layers:
  - Default
  - TransparentFX
  - Ignore Raycast
  - 
  - Water
  - UI
  - 
  - 
  - Interactables
  - Colliders
  - 
  - 
  - 
  - 
  - 
  - 
  - 
  - 
  - 
  - 
  - 
  - 
  - 
  - 
  - 
  - 
  - 
  - 
  - 
  - 
  - 
  - 
  m_SortingLayers:
  - name: Default
    uniqueID: 0
    locked: 0
  - name: Ground
    uniqueID: 3024692125
    locked: 0
  - name: Obstacles
    uniqueID: 1368453917
    locked: 0
  - name: Particles
    uniqueID: 1480244413
    locked: 0
  - name: Player
    uniqueID: 2862449319
    locked: 0
  - name: Overlay
    uniqueID: 2042704003
    locked: 0
