%YAML 1.1
%TAG !u! tag:unity3d.com,2011:
--- !u!114 &11400000
MonoBehaviour:
  m_ObjectHideFlags: 0
  m_CorrespondingSourceObject: {fileID: 0}
  m_PrefabInstance: {fileID: 0}
  m_PrefabAsset: {fileID: 0}
  m_GameObject: {fileID: 0}
  m_Enabled: 1
  m_EditorHideFlags: 0
  m_Script: {fileID: 11500000, guid: 0cfcf261f9c259645bb433d3113439be, type: 3}
  m_Name: New Mission
  m_EditorClassIdentifier: 
  id: 0
  name: New Mission
  description: 'Lorem ipsum dolor sit amet, consectetur adipiscing elit. Etiam accumsan
    metus in dapibus congue. Aliquam a est dictum, elementum ante sed, sollicitudin
    leo. Nulla vel ante diam. '
  categorization:
    value: 0
  originDestination:
    assignee: {fileID: 0}
    origin: 
    destination: Corburgus Town
  goals:
  - type: 2
    isCompleted: 1
    isFailed: 0
    character: {fileID: 0}
    pokemon: {fileID: 0}
    item: {fileID: 11400000, guid: 0e6061a88a3d1e24baa562e26d1a0a25, type: 2}
    amount: 1
  - type: 1
    isCompleted: 1
    isFailed: 0
    character: {fileID: 0}
    pokemon: {fileID: 11400000, guid: f32db35ef5bf6d2419ce0870db9ccb26, type: 2}
    item: {fileID: 0}
    amount: 2
  - type: 3
    isCompleted: 0
    isFailed: 0
    character: {fileID: 11400000, guid: 92292d809f583ec42ac68c4a618c66d7, type: 2}
    pokemon: {fileID: 0}
    item: {fileID: 11400000, guid: 2b671b2da2b761d42ad93560ae4a6be0, type: 2}
    amount: 1
  rewards:
  - type: 2
    amount: 1
    item: {fileID: 11400000, guid: 84aaa4a5e9d5ddd4c8a6918df8d6f676, type: 2}
  - type: 0
    amount: 32301
    item: {fileID: 0}
  - type: 1
    amount: 4
    item: {fileID: 11400000, guid: 2b671b2da2b761d42ad93560ae4a6be0, type: 2}
  isActive: 0
